%YAML 1.1
%TAG !u! tag:unity3d.com,2011:
--- !u!1045 &1
EditorBuildSettings:
  m_ObjectHideFlags: 0
  serializedVersion: 2
  m_Scenes:
  - enabled: 1
    path: Assets/Scenes/Menu.unity
    guid: 14c6ccb9810bb494883ae79163a04e04
  - enabled: 1
    path: Assets/Scenes/mecanimIntro.unity
    guid: 9fc0d4010bbf28b4594072e72b8655ab
  - enabled: 1
    path: Assets/Scenes/1stPersVR.unity
    guid: bf2656eda69afaf47a2562e3f9efdaf2
  - enabled: 1
    path: Assets/Scenes/3rdPersVR.unity
    guid: 7a830797acef1f242b21a94d597f7170
  - enabled: 1
    path: Assets/Scenes/ARimageTarget.unity
    guid: bbb9af1e6aa3f5d44a09d9f722fc8450
  m_configObjects: {}
